module github.com/m-lab/ndt-server

go 1.15

require (
	github.com/Yawning/cryptopan v0.0.0-20170504040949-65bca51288fe // indirect
	github.com/apex/log v1.9.0
	github.com/gocarina/gocsv v0.0.0-20201208093247-67c824bc04d4 // indirect
	github.com/google/uuid v1.2.0
	github.com/gorilla/handlers v1.5.1
	github.com/gorilla/websocket v1.4.2
	github.com/justinas/alice v1.2.0 // indirect
	github.com/m-lab/access v0.0.9
	github.com/m-lab/go v0.1.44
	github.com/m-lab/tcp-info v1.5.3
	github.com/m-lab/uuid v0.0.0-20191115203855-549727171666
	github.com/prometheus/client_golang v1.7.1
	gopkg.in/m-lab/pipe.v3 v3.0.0-20180108231244-604e84f43ee0
	gopkg.in/square/go-jose.v2 v2.5.1 // indirect
)

replace github.com/m-lab/go => gitlab.com/measurementlab/go v0.1.46-0.20210708115336-9556673e632c
